INDEX VERSION 1.130+C:\FSD_56\1.Adv_java\WorkSpace2\.metadata\.plugins\org.eclipse.jdt.core
542153213.index
2656530058.index
2951199876.index
3348520720.index
3644761064.index
1925809197.index
3635377112.index
395715844.index
4135958314.index
3040837599.index
411227453.index
962038574.index
3861767730.index
2679741410.index
1946725198.index
3422953568.index
1004279532.index
1667618490.index
1956904976.index
1691098565.index
2885606711.index
3058996753.index
912977216.index
4259073463.index
895354549.index
2889170302.index
3208118059.index
4073254725.index
705294239.index
743248405.index
1961815414.index
2205283528.index
814258698.index
1802194492.index
186915359.index
1530761573.index
507718866.index
1454974870.index
1841300956.index
647839646.index
674573568.index
103378668.index
4138326577.index
2507423472.index
1228715099.index
2589379793.index
2722808428.index
2066830214.index
2087452621.index
3592859560.index
