<?xml version="1.0" encoding="UTF-8"?>
<session version="1.0">
<refactoring comment="Delete resource &apos;fsd56&apos;" deleteContents="false" description="Delete resource &apos;fsd56&apos;" element1="/fsd56" flags="7" id="org.eclipse.ltk.core.refactoring.delete.resources" resources="1" stamp="1704264834926"/>
</session>